CIM-10 FR à usage PMSI • refpmsi
…
# chargement du référentiel "cim_chapitre" avec les 2 variables qui nous intéressent
cim_chapitre <- refpmsi::refpmsi("cim_chapitre") %>% dplyr::select(cim_chapitre_no,cim_chapitre_libelle)
cim_chapitre
#> # A tibble: 22 × 2
#>    cim_chapitre_no cim_chapitre_libelle                                         
#>    <chr>           <chr>                                                        
#>  1 1               Certaines maladies infectieuses et parasitaires              
#>  2 2               Tumeurs                                                      
#>  3 3               Maladies du sang et des organes hématopoïétiques et certains…
#>  4 4               Maladies endocriniennes, nutritionnelles et métaboliques     
#>  5 5               Troubles mentaux et du comportement                          
#>  6 6               Maladies du système nerveux                                  
#>  7 7               Maladies de l'œil et de ses annexes                          
#>  8 8               Maladies de l'oreille et de l'apophyse mastoïde              
#>  9 9               Maladies de l'appareil circulatoire                          
#> 10 10              Maladies de l'appareil respiratoire                          
#> # ℹ 12 more rows
…
