CSAR • refpmsi
…
Actes CSARR de préparations/suivi de dossier dans le nouveau CSAR
“1R”

# library(dplyr)
# library(refpmsi)

csarr_code <- refpmsi::refpmsi(csarr_code)
csar_transcodage <- refpmsi::refpmsi(csar_transcodage)

# repérage des actes CSAR de préparation via la 3eme position signifiante en P
csar_transcodage_is_P <- csar_transcodage %>% 
    # création de la variable logique is_acte_csar_P
    dplyr::mutate(is_acte_csar_P = ifelse(stringr::str_sub(csar_code,3,3) == "P", TRUE, FALSE))
csar_transcodage_is_P
#> # A tibble: 521 × 3
#>    csarr_code csar_code is_acte_csar_P
#>    <chr>      <chr>     <lgl>         
#>  1 ALQ+001    01E01     FALSE         
#>  2 ALQ+065    01E01     FALSE         
#>  3 ALQ+110    01E01     FALSE         
#>  4 ALQ+111    01E01     FALSE         
#>  5 ALQ+176    01E01     FALSE         
#>  6 ALQ+183    01E01     FALSE         
#>  7 ALQ+285    01E01     FALSE         
#>  8 ANQ+029    01E01     FALSE         
#>  9 ANQ+411    01E01     FALSE         
#> 10 ANQ+462    01E01     FALSE         
#> # ℹ 511 more rows
…
