DMI - LPP • refpmsi
…
Référentiel des libellés des DMI en sus

# library(dplyr)

# on retient pour chaque DMI en sus la version du libellé le plus récent par rapport au code du DMI
dmi_en_sus <- refpmsi::refpmsi("dmi_en_sus")

dmi_en_sus_libelle <- dmi_en_sus %>% 
    dplyr::filter(dmi_en_sus_date_effet == max(dmi_en_sus_date_effet),
                  dplyr::row_number() == 1L,
                  .by = c(dmi_en_sus_code)) %>% 
    dplyr::distinct(dmi_en_sus_code, dmi_en_sus_libelle)
dmi_en_sus_libelle
#> # A tibble: 6,256 × 2
#>    dmi_en_sus_code dmi_en_sus_libelle                                           
#>    <chr>           <chr>                                                        
#>  1 8156316         IMPLANT OSSEUX, GEOMETRIQUE, > 5 CM3 ET < OU = 15 CM3,FR RAC…
#>  2 8172195         IMPLANT OSSEUX, GEOMETRIQUE, > 15 CM3,FR RACHIS DD           
#>  3 8175259         DOIGT, IMPLANT PHALANGIEN, NON METALLIQUE,IMPLANT TECHNO     
#>  4 3100363         Implants vasculaires                                         
#>  5 3159391         Implants vasculaires                                         
#>  6 3165300         Implants vasculaires                                         
#>  7 3185342         Implants vasculaires                                         
#>  8 3120555         Implants vasculaires                                         
#>  9 8123127         IMPLANT OSSEUX, GÉOMÉTRIQUE, >1 CM3 ET < OU = 5CM3,FR RACHIS…
#> 10 8127958         IMPLANT OSSEUX, GÉOMÉTRIQUE, >1 CM3 ET < OU = 5CM3,ZIMMER BI…
#> # ℹ 6,246 more rows
…
