Référentiels GHM • refpmsi
…
Exemples

Chargement du référentiel des GHS Public des années 2023 et
2024

# Chargement du référentiel des GHS-GHM Public des années 2023 et 2024024
ghs_2023_2024 <- refpmsi::refpmsi("ghs_public",2023:2024)
ghs_2023_2024
#> # A tibble: 11,342 x 9
#>    ghs   ghm    ghm_libelle   ghm_bb ghm_bh ghs_tarif ghs_exb ghs_exh annee_pmsi
#>    <chr> <chr>  <chr>          <int>  <int>     <dbl>   <dbl>   <dbl> <chr>     
#>  1 22    01C031 Craniotomies~      0     11     4162.      0    123.  2024      
#>  2 23    01C032 Craniotomies~      0     19     7389.      0    102.  2024      
#>  3 24    01C033 Craniotomies~      0     64    13334.      0     78.9 2024      
#>  4 25    01C034 Craniotomies~     12    124    18069.    451.   335.  2024      
#>  5 65    01C041 Craniotomies~      0     12    14420.      0    151.  2024      
#>  6 26    01C041 Craniotomies~      0     12     6526.      0    151.  2024      
#>  7 66    01C042 Craniotomies~      0     20    18776.      0    114.  2024      
#>  8 27    01C042 Craniotomies~      0     20    10882.      0    114.  2024      
#>  9 28    01C043 Craniotomies~      0     43    15711.      0     78.4 2024      
#> 10 67    01C043 Craniotomies~      0     43    23606.      0     78.4 2024      
#> # i 11,332 more rows
…
Rattachement DMS nationale aux séjours

Dans un premier temps, on rattache les DMS nationales issues
d’OVALIDE MCO à chaque séjour.

Puis on compare la DS des séjours avec ces DMS nationales pour les
séjours pour lesquels cela a un sens (séjours avec une DS > 0).

# Chargement des DMS OVALIDE des années PMSI 2023 et 20244
dms_ovalide <- refpmsi::refpmsi("ovalide_ghminfo_dgf", 2023:2024) %>% dplyr::select(ghm,dms,annee_pmsi)
dms_ovalide
#> # A tibble: 5,276 x 3
#>    ghm      dms annee_pmsi
#>    <chr>  <dbl> <chr>     
#>  1 01C031  3.35 2024      
#>  2 01C032  6.80 2024      
#>  3 01C033 14.9  2024      
#>  4 01C034 35.2  2024      
#>  5 01C041  4.08 2024      
#>  6 01C042  7.20 2024      
#>  7 01C043 13.8  2024      
#>  8 01C044 32.3  2024      
#>  9 01C051  3.42 2024      
#> 10 01C052  6.94 2024      
#> # i 5,266 more rows

jeu_ghm_dms <- jeu_ghm %>%
    # rattachement des DMS OVALIDE
    dplyr::left_join(dms_ovalide, join_by(ghm == ghm, annee_rss == annee_pmsi)) %>% 
    # nouvelle variable ecart_dms
    # nouvelle variable ratio_ecart_dms. = NA pour les cas jp = 0
    dplyr::mutate(ecart_dms = jp - dms,
                  ratio_ecart_dms = ifelse(jp != 0L, round(jp/dms,2), NA_real_))
jeu_ghm_dms %>% print(n = 15, width = Inf)
#> # A tibble: 17 x 10
#>    no_rum no_rss ghm    dp_rum    jp ghs   annee_rss    dms ecart_dms
#>     <dbl>  <dbl> <chr>  <chr>  <int> <chr> <chr>      <dbl>     <dbl>
#>  1      1      1 06K02Z D122       0 2119  2024       0.110    -0.110
#>  2      1      2 08C321 S8220      3 2808  2023       2.85      0.148
#>  3      1      3 04M053 J181      10 1144  2023      11.6      -1.59 
#>  4      1      4 05M092 I5001      7 1754  2024       7.98     -0.981
#>  5      1      5 06M12T R104       0 2200  2024       0.491    -0.491
#>  6      1      6 04M053 J181       0 1144  2023      11.6     -11.6  
#>  7      1      7 20Z041 F102      29 7267  2023       9.29     19.7  
#>  8      1      8 08K041 S730       2 3033  2024       3.35     -1.35 
#>  9      1      9 01M201 S0600      3 268   2023       0.640     2.36 
#> 10      1     10 06M12T R104       0 2206  2024       0.491    -0.491
#> 11      1     11 05M092 I5009      2 1754  2023       8.07     -6.07 
#> 12      2     11 05M092 I472       1 1754  2023       8.07     -7.07 
#> 13      1     12 04M053 J189       2 1144  2024      11.5      -9.52 
#> 14      2     12 04M053 J960      11 1144  2024      11.5      -0.516
#> 15      3     12 04M053 J189      11 1144  2024      11.5      -0.516
#>    ratio_ecart_dms
#>              <dbl>
#>  1           NA   
#>  2            1.05
#>  3            0.86
#>  4            0.88
#>  5           NA   
#>  6           NA   
#>  7            3.12
#>  8            0.6 
#>  9            4.69
#> 10           NA   
#> 11            0.25
#> 12            0.12
#> 13            0.17
#> 14            0.96
#> 15            0.96
#> # i 2 more rows
…
Liste des codes CIM-10 d’une liste D

# Chargement du référentiel des listes D et A de l'algorithme de groupage MCOCO
mco_fg_listes <- refpmsi::refpmsi("mco_fg_listes", 2021)
mco_fg_listes
#> # A tibble: 55,409 x 8
#>    mco_fg_liste_code mco_fg_liste_lib mco_fg_liste_type mco_fg_cmd mco_fg_code
#>    <chr>             <chr>            <chr>             <chr>      <chr>      
#>  1 A-002             Craniotomies     A                 01         AAFA001    
#>  2 A-002             Craniotomies     A                 01         AAFA002    
#>  3 A-002             Craniotomies     A                 01         AAFA003    
#>  4 A-002             Craniotomies     A                 01         AAFA004    
#>  5 A-002             Craniotomies     A                 01         AAFA005    
#>  6 A-002             Craniotomies     A                 01         AAFA006    
#>  7 A-002             Craniotomies     A                 01         AAFA007    
#>  8 A-002             Craniotomies     A                 01         AAFA008    
#>  9 A-002             Craniotomies     A                 01         AAGA900    
#> 10 A-002             Craniotomies     A                 01         AAJA001    
#> # i 55,399 more rows
#> # i 3 more variables: mco_fg_ccam_pmsi_extension <chr>,
#> #   mco_fg_ccam_pmsi_phase <chr>, annee_pmsi <chr>
…
Script similaire pour extraire les actes CCAM PMSI d’une liste A.

Diagnostics d’entrée d’une CMD

On choisit d’extraire les diags d’entrée de la CMD 01

# on a chargé le référentiel mco_fg_listes dans la variable mco_fg_listestes
diag_cmd_01 <- mco_fg_listes %>%
  dplyr::filter(mco_fg_cmd == "01", mco_fg_liste_type == "D") %>%
  # argument.keep_all = TRUE pour garder les colonnes
  dplyr::distinct(mco_fg_code, .keep_all = TRUE) %>%
  # colonnes qui nous intéressent + réordonnancementnt
  dplyr::select(mco_fg_code, mco_fg_cmd, mco_fg_liste_code, mco_fg_liste_lib)
diag_cmd_01
#> # A tibble: 903 x 4
#>    mco_fg_code mco_fg_cmd mco_fg_liste_code mco_fg_liste_lib      
#>    <chr>       <chr>      <chr>             <chr>                 
#>  1 F072        01         D-0101            Migraines et céphaléeses
#>  2 G430        01         D-0101            Migraines et céphaléeses
#>  3 G431        01         D-0101            Migraines et céphaléeses
#>  4 G432        01         D-0101            Migraines et céphaléeses
#>  5 G433        01         D-0101            Migraines et céphaléeses
#>  6 G438        01         D-0101            Migraines et céphaléeses
#>  7 G439        01         D-0101            Migraines et céphaléeses
#>  8 G440        01         D-0101            Migraines et céphaléeses
#>  9 G441        01         D-0101            Migraines et céphaléeses
#> 10 G442        01         D-0101            Migraines et céphaléeses
#> # i 893 more rows
…
1ere étape : construire le tibble des diagnostics d’entrée de toutes
les CMD concernées par une introduction de groupage par le DP

# on a chargé le référentiel mco_fg_listes dans la variable mco_fg_listestes
diag_cmd <- mco_fg_listes %>%
  dplyr::filter(mco_fg_liste_type == "D") %>%
  # nest_by = group_by + summarise + rowwise (expérimental dplyr 1.0.7))
  dplyr::nest_by(mco_fg_cmd, .key = "diag_entree") %>%
  # dégroupage du rowwise généré par nest_byt_by
  dplyr::ungroup() %>%
  # traitement de la list_column des diags d'entréee
  dplyr::mutate(diag_entree = purrr::map(diag_entree, ~ dplyr::distinct(.x, mco_fg_code, .keep_all = TRUE) %>% dplyr::select(c("mco_fg_code", "mco_fg_liste_code", "mco_fg_liste_lib"))))
diag_cmd
#> # A tibble: 26 x 2
#>    mco_fg_cmd diag_entree         
#>    <chr>      <list>              
#>  1 01         <tibble [903 x 3]>  
#>  2 02         <tibble [408 x 3]>  
#>  3 03         <tibble [555 x 3]>  
#>  4 04         <tibble [465 x 3]>  
#>  5 05         <tibble [495 x 3]>  
#>  6 06         <tibble [579 x 3]>  
#>  7 07         <tibble [227 x 3]>  
#>  8 08         <tibble [4,058 x 3]>
#>  9 09         <tibble [914 x 3]>  
#> 10 10         <tibble [422 x 3]>  
#> # i 16 more rows
…
